<?xml version="1.0" encoding="utf-8"?>
<!-- Generator: Adobe Illustrator 24.2.3, SVG Export Plug-In . SVG Version: 6.00 Build 0)  -->
<svg version="1.1" id="Capa_1" xmlns="http://www.w3.org/2000/svg" xmlns:xlink="http://www.w3.org/1999/xlink" x="0px" y="0px"
	 viewBox="0 0 512 416.4" style="enable-background:new 0 0 512 416.4;" xml:space="preserve">
<style type="text/css">
	.st0{fill:#47729A;}
	.st1{fill:#BDBFC2;}
</style>
<path class="st0" d="M266,230.7l-2.9-2.9l-2.1-2.1c-2.8-2.8-7.2-2.8-10,0l-2.1,2.1l-2.9,2.9l-33,33c-2.8,2.8-2.8,7.2,0,10l0,0
	c2.8,2.8,7.2,2.8,10,0l23.1-23.1c1-1,2.8-0.3,2.8,1.2v157.7c0,3.9,3.2,7.1,7.1,7.1l0,0c3.9,0,7.1-3.2,7.1-7.1V251.7
	c0-1.5,1.8-2.2,2.8-1.2l23.1,23.1c2.8,2.8,7.2,2.8,10,0l0,0c2.8-2.8,2.8-7.2,0-10L266,230.7z"/>
<g>
	<path class="st1" d="M442.6,129.2c0.4-3.9,0.6-7.4,0.6-10.8C443.2,53.1,388.5,0,321.3,0c-25,0-49,7.3-69.4,21.1
		c-18.4,12.4-32.7,29.2-41.8,48.9c-9.9-3-31.6-7.3-57.1,1.4c-18.2,6.3-31.7,19-39,36.8c-3.1,7.6-4.5,14.5-5.1,19.2H84.5
		C38.2,127.4,0.6,164,0.6,209v15.1c0,45,37.7,81.6,83.9,81.6h149.8v-12H84.5c-39.7,0-71.9-31.2-71.9-69.6V209
		c0-38.4,32.3-69.6,71.9-69.6h35.8v-6c0-0.4,0.5-38.3,36.5-50.7c29.7-10.2,53.9,0.1,54.1,0.2l5.7,2.5l2.3-5.8
		c16.6-41,56.8-67.6,102.4-67.6c60.6,0,109.9,47.7,109.9,106.4c0,4.6-0.4,9.3-1.2,15.1l-0.9,6.2l6.2,0.7
		c36.6,3.9,64.1,33.5,64.1,68.8v15.1c0,38.4-32.3,69.6-71.9,69.6H277.9v12h149.5c46.3,0,83.9-36.6,83.9-81.6V209
		C511.4,169.6,482.2,136.3,442.6,129.2z"/>
</g>
</svg>
